<svg width="56" height="56" viewBox="0 0 56 56" fill="none" xmlns="http://www.w3.org/2000/svg">
<path d="M0.5 28C0.5 43.1878 12.8122 55.5 28 55.5C43.1878 55.5 55.5 43.1878 55.5 28C55.5 12.8122 43.1878 0.5 28 0.5C12.8122 0.5 0.5 12.8122 0.5 28Z" stroke="#C2C2C2"/>
<path d="M26 20L31 27.5L26 35" stroke="black" stroke-linecap="round" stroke-linejoin="round"/>
</svg>
